Build/dump.vcd
$date
	Sun Oct 16 08:28:11 2022
$end
$version
	Bluespec VCD dumper 2.1
$end
$timescale
	1 us
$end
$scope module main $end
$scope module top $end
$var reg 1 ! CLK $end
$var reg 1 ! CLK $end
$var reg 1 " CAN_FIRE_RL_rl_c0 $end
$var reg 1 # CAN_FIRE_RL_rl_c2 $end
$var reg 1 $ CAN_FIRE_RL_rl_do_once $end
$var reg 1 % CAN_FIRE_RL_rl_dosomething $end
$var reg 1 & CAN_FIRE_RL_rl_increase_c $end
$var reg 1 ' CAN_FIRE_RL_rl_print_creg1 $end
$var reg 1 ( CAN_FIRE_RL_rl_print_creg3 $end
$var reg 1 ) RST_N $end
$var reg 1 * WILL_FIRE_RL_rl_c0 $end
$var reg 1 + WILL_FIRE_RL_rl_c2 $end
$var reg 1 , WILL_FIRE_RL_rl_do_once $end
$var reg 1 - WILL_FIRE_RL_rl_dosomething $end
$var reg 1 . WILL_FIRE_RL_rl_increase_c $end
$var reg 1 / WILL_FIRE_RL_rl_print_creg1 $end
$var reg 1 0 WILL_FIRE_RL_rl_print_creg3 $end
$var reg 8 1 x__h566 $end
$var reg 8 5 c $end
$var reg 8 6 creg $end
$scope module creg $end
$var reg 8 6 Q_OUT_0 $end
$var reg 1 7 EN_0 $end
$var reg 8 8 D_IN_0 $end
$var reg 8 9 Q_OUT_1 $end
$var reg 1 : EN_1 $end
$var reg 8 ; D_IN_1 $end
$var reg 8 < Q_OUT_2 $end
$var reg 1 = EN_2 $end
$var reg 8 > D_IN_2 $end
$var reg 8 ? Q_OUT_3 $end
$var reg 1 @ EN_3 $end
$var reg 8 A D_IN_3 $end
$var reg 8 B Q_OUT_4 $end
$var reg 1 C EN_4 $end
$var reg 8 D D_IN_4 $end
$upscope $end
$var reg 1 E init $end
$scope module m $end
$var reg 1 ! CLK $end
$var reg 1 F CAN_FIRE_get_a $end
$var reg 1 G CAN_FIRE_inc_counter $end
$var reg 1 H RST_N $end
$var reg 1 I WILL_FIRE_inc_counter $end
$var reg 1 J EN_inc_counter $end
$var reg 1 K RDY_get_a $end
$var reg 1 L RDY_inc_counter $end
$var reg 8 M get_a $end
$var reg 8 N inc_counter $end
$var reg 8 O inc_counter_x $end
$var reg 8 R a $end
$var reg 8 S counter $end
$upscope $end
$upscope $end
$upscope $end
$enddefinitions $end
1!
0"
0#
1$
1%
1&
1'
1(
0)
0*
0+
1,
1-
1.
1/
10
b10101010 1
b0 5
b10101010 6
07
b10101010 8
b10101010 9
0:
b10101010 ;
b10101010 <
0=
b10101010 >
b10101010 ?
0@
b10101010 A
b10101010 B
0C
b10101010 D
0E
0F
1G
0H
1I
1J
0K
1L
b0 M
b10101010 N
b1 O
b1001101 R
b0 S
b0 1
b0 6
b0 9
b0 <
b0 ?
b0 B
b0 N
#5
0!
1)
1H
#10
0$
0,
b1 1
b1 N
1!
b1 5
1E
b1 S
#15
0!
#20
b10 1
b10 N
1!
b10 5
b10 S
#25
0!
#30
b11 1
b11 N
1!
b11 5
b11 S
#35
0!
#40
1"
1#
1*
1+
b100 1
17
b1 8
b1 9
b1 <
1=
b10 >
b10 ?
b10 B
b100 N
1!
b100 5
b100 S
#45
0!
#50
0"
0#
0*
0+
b101 1
b10 6
07
b10 9
b10 <
0=
b101 N
1!
b101 5
b101 S
#55
0!
#60
b110 1
b110 N
1!
b110 5
b110 S
#65
0!
#70
b111 1
b111 N
1!
b111 5
b111 S
#75
0!
#80
b1000 1
b1000 N
1!
b1000 5
b1000 S
#85
0!
#90
b1001 1
b1001 N
1!
b1001 5
b1001 S
#95
0!
#100
b1010 1
b1010 N
1!
b1010 5
b1010 S
#105
0!
#110
b1011 1
b1011 N
1!
b1011 5
b1011 S
